{
    "albums": {
        "href": "https://api.spotify.com/v1/search?query=party&type=album&offset=0&limit=1",
        "items": [
            {
                "album_type": "single",
                "artists": [
                    {
                        "external_urls": {
                            "spotify": "https://open.spotify.com/artist/0NGAZxHanS9e0iNHpR8f2W"
                        },
                        "href": "https://api.spotify.com/v1/artists/0NGAZxHanS9e0iNHpR8f2W",
                        "id": "0NGAZxHanS9e0iNHpR8f2W",
                        "name": "Alok",
                        "type": "artist",
                        "uri": "spotify:artist:0NGAZxHanS9e0iNHpR8f2W"
                    },
                    {
                        "external_urls": {
                            "spotify": "https://open.spotify.com/artist/28uJnu5EsrGml2tBd7y8ts"
                        },
                        "href": "https://api.spotify.com/v1/artists/28uJnu5EsrGml2tBd7y8ts",
                        "id": "28uJnu5EsrGml2tBd7y8ts",
                        "name": "Vintage Culture",
                        "type": "artist",
                        "uri": "spotify:artist:28uJnu5EsrGml2tBd7y8ts"
                    }
                ],
                "available_markets": [
                    "BR"
                ],
                "external_urls": {
                    "spotify": "https://open.spotify.com/album/1NntTMz0L8e1Cc9U44UPLb"
                },
                "href": "https://api.spotify.com/v1/albums/1NntTMz0L8e1Cc9U44UPLb",
                "id": "1NntTMz0L8e1Cc9U44UPLb",
                "images": [
                    {
                        "height": 640,
                        "url": "https://i.scdn.co/image/ab67616d0000b2739412ffcd233b2433070fcd2f",
                        "width": 640
                    },
                    {
                        "height": 300,
                        "url": "https://i.scdn.co/image/ab67616d00001e029412ffcd233b2433070fcd2f",
                        "width": 300
                    },
                    {
                        "height": 64,
                        "url": "https://i.scdn.co/image/ab67616d000048519412ffcd233b2433070fcd2f",
                        "width": 64
                    }
                ],
                "name": "Party On My Own",
                "release_date": "2020-08-28",
                "release_date_precision": "day",
                "total_tracks": 1,
                "type": "album",
                "uri": "spotify:album:1NntTMz0L8e1Cc9U44UPLb"
            }
        ],
        "limit": 1,
        "next": "https://api.spotify.com/v1/search?query=party&type=album&offset=1&limit=1",
        "offset": 0,
        "previous": null,
        "total": 10000
    }
}